…
## Exercises

### Exercise 1

``` r
college_recent_grads %>% 
  arrange(desc(total))  %>%
  count(women, major, total) 
```

    ## # A tibble: 173 x 4
    ##    women major                                       total     n
    ##    <int> <chr>                                       <int> <int>
    ##  1     0 Military Technologies                         124     1
    ##  2    77 Mining And Mineral Engineering                756     1
    ##  3   109 Mathematics And Computer Science              609     1
    ##  4   131 Metallurgical Engineering                     856     1
    ##  5   135 Naval Architecture And Marine Engineering    1258     1
    ##  6   209 Soil Science                                  685     1
    ##  7   232 Geological And Geophysical Engineering        720     1
    ##  8   271 Court Reporting                              1148     1
    ##  9   282 Petroleum Engineering                        2339     1
    ## 10   371 Mechanical Engineering Related Technologies  4790     1
    ## # ... with 163 more rows
…
